# unify

    Code
      all_groups
    Output
      # A tibble: 1,001 × 9
         ProteinId      q.value original_groups posterior_error_prob peptideIds header
         <chr>          <chr>   <chr>           <chr>                <chr>      <chr> 
       1 P827204,P8386… 0.0005… 1,1,NA,NA,4,12… 2.80837e-12,2.13966… GGSGGSHGG… Casan…
       2 P825366,P8255… 0.0005… 5,31,NA,NA,45,… 2.68823e-10,2.098e-… GGSGGSYGG… Casan…
       3 P826956,P8384… 0.0005… 8,2,NA,NA,3,6,… 4.62701e-10,1.53961… GGGGGGYGS… Casan…
       4 P832861,P8446… 0.0005… 15,NA,NA,NA,16… 3.17649e-09,NA,NA,N… SALTALAQQ… Casan…
       5 P830287,P8419… 0.0005… 25,68,NA,NA,NA… 9.37002e-09,7.11728… n[42.0106… Casan…
       6 P831831,P8318… 0.0005… 35,199,NA,222,… 2.36285e-08,3.89567… ENYDGLFLS… Casan…
       7 P844980,P8684… 0.0005… 36,NA,745,384,… 2.47922e-08,NA,3.33… LLGSPADFT… Casan…
       8 P828270,P8517… 0.0005… 48,126,NA,NA,1… 3.4167e-08,1.9768e-… ATGTQVNYQ… Casan…
       9 P828162,P8281… 0.0005… 49,507,NA,NA,N… 3.43778e-08,0.00015… n[42.0106… Casan…
      10 P852362,P8639… 0.0005… 59,175,NA,NA,N… 5.15763e-08,3.21347… SEKPQLEED… PepNe…
      # ℹ 991 more rows
      # ℹ 3 more variables: num_proteins <int>, num_peps <int>, ProteinGroups <chr>
