# unify

    Code
      all_groups
    Output
      # A tibble: 1,001 × 9
         ProteinId       ProteinGroupId q.value posterior_error_prob peptideIds header
         <chr>           <chr>          <chr>   <chr>                <chr>      <chr> 
       1 P827204,P83862… 1,1,NA,NA,4,1… 0.0005… 2.80837e-12,2.13966… GGSGGSHGG… Casan…
       2 P825366,P82555… 5,31,NA,NA,45… 0.0005… 2.68823e-10,2.098e-… GGSGGSYGG… Casan…
       3 P826956,P83841… 8,2,NA,NA,3,6… 0.0005… 4.62701e-10,1.53961… GGGGGGYGS… Casan…
       4 P832861,P844656 15,NA,NA,NA,1… 0.0005… 3.17649e-09,NA,NA,N… SALTALAQQ… Casan…
       5 P830287,P84193… 25,68,NA,NA,N… 0.0005… 9.37002e-09,7.11728… n[42.0106… Casan…
       6 P831831,P83183… 35,199,NA,222… 0.0005… 2.36285e-08,3.89567… ENYDGLFLS… Casan…
       7 P844980,P86848… 36,NA,745,384… 0.0005… 2.47922e-08,NA,3.33… LLGSPADFT… Casan…
       8 P828270,P85177… 48,126,NA,NA,… 0.0005… 3.4167e-08,1.9768e-… ATGTQVNYQ… Casan…
       9 P828162,P828171 49,507,NA,NA,… 0.0005… 3.43778e-08,0.00015… n[42.0106… Casan…
      10 P852362,P863939 59,175,NA,NA,… 0.0005… 5.15763e-08,3.21347… SEKPQLEED… PepNe…
      # ℹ 991 more rows
      # ℹ 3 more variables: num_proteins <int>, num_peps <int>, ProteinGroups <chr>
